<svg width="33" height="40" viewBox="0 0 33 40" fill="none" xmlns="http://www.w3.org/2000/svg">
<rect width="33" height="40" rx="8" fill="#DFFFF4"/>
<path d="M27 14.5H21" stroke="#11A683" stroke-width="1.5" stroke-miterlimit="10" stroke-linecap="round" stroke-linejoin="round"/>
<path d="M11 14.5H7" stroke="#11A683" stroke-width="1.5" stroke-miterlimit="10" stroke-linecap="round" stroke-linejoin="round"/>
<path d="M15 18C16.933 18 18.5 16.433 18.5 14.5C18.5 12.567 16.933 11 15 11C13.067 11 11.5 12.567 11.5 14.5C11.5 16.433 13.067 18 15 18Z" fill="#11A683" stroke="#11A683" stroke-miterlimit="10" stroke-linecap="round" stroke-linejoin="round"/>
<path d="M27 25.5H23" stroke="#11A683" stroke-width="1.5" stroke-miterlimit="10" stroke-linecap="round" stroke-linejoin="round"/>
<path d="M13 25.5H7" stroke="#11A683" stroke-width="1.5" stroke-miterlimit="10" stroke-linecap="round" stroke-linejoin="round"/>
<path d="M19 29C20.933 29 22.5 27.433 22.5 25.5C22.5 23.567 20.933 22 19 22C17.067 22 15.5 23.567 15.5 25.5C15.5 27.433 17.067 29 19 29Z" fill="#11A683" stroke="#11A683" stroke-miterlimit="10" stroke-linecap="round" stroke-linejoin="round"/>
</svg>
