<svg width="16" height="24" viewBox="0 0 16 24" fill="none" xmlns="http://www.w3.org/2000/svg">
<path d="M12 0C5.38105 0 0 5.38105 0 12C0 18.6189 5.38105 24 12 24C18.6189 24 24 18.6189 24 12C24 5.38105 18.6189 0 12 0ZM19.9579 5.60842C19.9326 5.63368 19.9074 5.68421 19.9074 5.70947L18.7705 9.19579L15.36 10.3074L12.5811 8.28632V4.67368L15.5368 2.52632C15.5621 2.50105 15.5874 2.47579 15.6126 2.45053L15.6884 2.34947L15.7895 2.4C17.4316 3.05684 18.8716 4.09263 19.9832 5.43158L20.0337 5.50737L19.9579 5.60842ZM15.7895 11.3937L19.1495 10.3074L22.1053 12.4547C22.1305 12.48 22.1558 12.48 22.1811 12.5053L22.3074 12.5558V12.6316C22.2063 14.3747 21.6505 16.0926 20.7158 17.5579L20.6653 17.6337L20.5389 17.6084C20.4884 17.6084 20.4632 17.5832 20.4379 17.5832H16.7747L14.7032 14.7537L15.7895 11.3937ZM12 22.3326C11.1663 22.3326 10.2821 22.2063 9.42316 22.0042L9.34737 21.9789L9.32211 21.8526C9.32211 21.8021 9.3221 21.7768 9.29684 21.7516L8.16 18.2905L10.2316 15.4611H13.7684L15.8147 18.2653L14.6779 21.7516C14.6779 21.7768 14.6526 21.8021 14.6526 21.8526L14.6274 21.9789L14.5516 22.0042C13.7179 22.2316 12.8337 22.3326 12 22.3326ZM8.18526 11.3937L9.27158 14.7284L7.2 17.5579H3.56211C3.53684 17.5579 3.48632 17.5579 3.46105 17.5832L3.33474 17.6084L3.28421 17.5579C2.34947 16.0926 1.79368 14.4 1.69263 12.6316V12.5558L1.79368 12.5053C1.81895 12.48 1.86947 12.48 1.89474 12.4547L4.85053 10.3074L8.18526 11.3937ZM4.04211 5.43158C5.15368 4.09263 6.59368 3.03158 8.23579 2.4L8.31158 2.37474L8.41263 2.47579C8.43789 2.50105 8.46316 2.52632 8.48842 2.55158L11.3937 4.67368V8.26105L8.61474 10.2821L5.20421 9.17053L4.09263 5.68421C4.09263 5.65895 4.06737 5.63368 4.04211 5.58316L3.99158 5.48211L4.04211 5.43158Z" fill="#11A683"/>
</svg>
