<svg width="24" height="24" viewBox="0 0 24 24" fill="none" xmlns="http://www.w3.org/2000/svg">
<path opacity="0.4" d="M9 16.8V7.21C9 4 11 2 14.2 2H16.79C19.99 2 21.99 4 21.99 7.2V16.8C22 20 20 22 16.8 22H14.2C11 22 9 20 9 16.8Z" fill="#96E0D2"/>
<path d="M12.43 15.88L15.78 12.53C16.07 12.24 16.07 11.76 15.78 11.47L12.43 8.11998C12.14 7.82998 11.66 7.82998 11.37 8.11998C11.08 8.40998 11.08 8.88998 11.37 9.17998L13.44 11.25H2.75C2.34 11.25 2 11.59 2 12C2 12.41 2.34 12.75 2.75 12.75H13.44L11.37 14.82C11.22 14.97 11.15 15.16 11.15 15.35C11.15 15.54 11.22 15.73 11.37 15.88C11.66 16.18 12.13 16.18 12.43 15.88Z" fill="#1B1C20"/>
</svg>
